%YAML 1.1
%TAG !u! tag:unity3d.com,2011:
--- !u!114 &11400000
MonoBehaviour:
  m_ObjectHideFlags: 0
  m_CorrespondingSourceObject: {fileID: 0}
  m_PrefabInstance: {fileID: 0}
  m_PrefabAsset: {fileID: 0}
  m_GameObject: {fileID: 0}
  m_Enabled: 1
  m_EditorHideFlags: 0
  m_Script: {fileID: 11500000, guid: 8e2af6e59eaa9aa458d97e9c0f54ecc2, type: 3}
  m_Name: Example Question 1
  m_EditorClassIdentifier: 
  id: 0
  questionImage: {fileID: 0}
  questionImageWidth: 200
  questionImageHeight: 200
  questionImageScale: 1.5
  description: 1 + 1 =
  options:
  - A. 2
  - B. 3
  - C. 4
  - D. 5
  answer: 0
  points: 5
