%YAML 1.1
%TAG !u! tag:unity3d.com,2011:
--- !u!114 &11400000
MonoBehaviour:
  m_ObjectHideFlags: 0
  m_CorrespondingSourceObject: {fileID: 0}
  m_PrefabInstance: {fileID: 0}
  m_PrefabAsset: {fileID: 0}
  m_GameObject: {fileID: 0}
  m_Enabled: 1
  m_EditorHideFlags: 0
  m_Script: {fileID: 11500000, guid: 8e2af6e59eaa9aa458d97e9c0f54ecc2, type: 3}
  m_Name: Q3
  m_EditorClassIdentifier: 
  id: 3
  questionImage: {fileID: 21300000, guid: 72e9b2db513b9a941b78499a63b12b23, type: 3}
  questionImageWidth: 694
  questionImageHeight: 138
  questionImageScale: 1
  description: Find the value of a and b.
  options:
  - A. a=7, b=6
  - B. a=-6, b=5
  - C. a=5, b=-6
  - D. a =6, b =-5
  answer: 3
  points: 5
