%YAML 1.1
%TAG !u! tag:unity3d.com,2011:
--- !u!114 &11400000
MonoBehaviour:
  m_ObjectHideFlags: 0
  m_CorrespondingSourceObject: {fileID: 0}
  m_PrefabInstance: {fileID: 0}
  m_PrefabAsset: {fileID: 0}
  m_GameObject: {fileID: 0}
  m_Enabled: 1
  m_EditorHideFlags: 0
  m_Script: {fileID: 11500000, guid: 8e2af6e59eaa9aa458d97e9c0f54ecc2, type: 3}
  m_Name: Q 02
  m_EditorClassIdentifier: 
  id: 2
  questionImage: {fileID: 21300000, guid: b12674d14bb6f419783b196182d84714, type: 3}
  description: "Ali\u2019s age is 17 years old. Muthu is 3 years older than Ali.
    Chong is 5 years younger \r\nthan Muthu. Find their total age"
  options:
  - 25
  - 40
  - 49
  - 52
  answer: 3
  points: 5
