%YAML 1.1
%TAG !u! tag:unity3d.com,2011:
--- !u!114 &11400000
MonoBehaviour:
  m_ObjectHideFlags: 0
  m_CorrespondingSourceObject: {fileID: 0}
  m_PrefabInstance: {fileID: 0}
  m_PrefabAsset: {fileID: 0}
  m_GameObject: {fileID: 0}
  m_Enabled: 1
  m_EditorHideFlags: 0
  m_Script: {fileID: 11500000, guid: 8e2af6e59eaa9aa458d97e9c0f54ecc2, type: 3}
  m_Name: Q 08
  m_EditorClassIdentifier: 
  id: 8
  questionImage: {fileID: 0}
  description: A train travelled from Johor Bharu to Kuala Lumpur. The journey took
    8 hours 15 minutes. The train reached Kuala Lumpur at 4.00 p.m. When did the
    train depart, in the 24-hour system, from Johor Bharu?
  options:
  - 0415
  - 0745
  - 1215
  - 1945
  answer: 1
  points: 5
