%YAML 1.1
%TAG !u! tag:unity3d.com,2011:
--- !u!114 &11400000
MonoBehaviour:
  m_ObjectHideFlags: 0
  m_CorrespondingSourceObject: {fileID: 0}
  m_PrefabInstance: {fileID: 0}
  m_PrefabAsset: {fileID: 0}
  m_GameObject: {fileID: 0}
  m_Enabled: 1
  m_EditorHideFlags: 0
  m_Script: {fileID: 11500000, guid: 8e2af6e59eaa9aa458d97e9c0f54ecc2, type: 3}
  m_Name: Q 14
  m_EditorClassIdentifier: 
  id: 14
  questionImage: {fileID: 0}
  description: "6p(p+ 2q) \u2013 (3p- q)^2 = "
  options:
  - -3p^2 - 18pq + q^2
  - -3p^2 + 18pq - q^2
  - 3p^2 - 18pq + q^2
  - 3p^2 + 18pq - q^2
  answer: 1
  points: 5
